\relax 
\catcode `:\active 
\catcode `;\active 
\catcode `!\active 
\catcode `?\active 
\babel@aux{french}{}
\@writefile{toc}{\contentsline {paragraph}{Initialisation :\newline  }{6}\protected@file@percent }
\@writefile{toc}{\contentsline {paragraph}{Fonctionnement avec les agents explorateurs :\newline  }{6}\protected@file@percent }
\@writefile{toc}{\contentsline {paragraph}{Niveau de priorit\IeC {\'e} et conclusion :\newline  }{6}\protected@file@percent }
